^C:\USERS\BUNINMAT\SOURCE\REPOS\DPG\NANOGOLEM\ASSIMPPARSE.CPP
/c /I"C:\USERS\BUNINMAT\SOURCE\REPOS\DPG\NANOGOLEM-MSVC\PACKAGES\LIBPNG.1.6.20.1\BUILD\NATIVE\../..//BUILD/NATIVE/INCLUDE/" /I.\PACKAGES\LIBPNG.1.6.20.1\BUILD\NATIVE\INCLUDE /I.\PACKAGES /ZI /JMC /nologo /W3 /WX- /diagnostics:column /sdl /Od /D HAS_LIBPNG /D DIRCAT=0x5c /D _CRT_SECURE_NO_WARNINGS /D _MBCS /D _VARIADIC_MAX=10 /D _MBCS /Gm- /EHsc /RTC1 /MDd /GS /fp:precise /Zc:wchar_t /Zc:forScope /Zc:inline /std:c++17 /Fo"X64\DEBUG\\" /Fd"X64\DEBUG\VC142.PDB" /external:W3 /Gd /TP /FC C:\USERS\BUNINMAT\SOURCE\REPOS\DPG\NANOGOLEM\ASSIMPPARSE.CPP
^C:\USERS\BUNINMAT\SOURCE\REPOS\DPG\NANOGOLEM\BASRND.CPP
/c /I"C:\USERS\BUNINMAT\SOURCE\REPOS\DPG\NANOGOLEM-MSVC\PACKAGES\LIBPNG.1.6.20.1\BUILD\NATIVE\../..//BUILD/NATIVE/INCLUDE/" /I.\PACKAGES\LIBPNG.1.6.20.1\BUILD\NATIVE\INCLUDE /I.\PACKAGES /ZI /JMC /nologo /W3 /WX- /diagnostics:column /sdl /Od /D HAS_LIBPNG /D DIRCAT=0x5c /D _CRT_SECURE_NO_WARNINGS /D _MBCS /D _VARIADIC_MAX=10 /D _MBCS /Gm- /EHsc /RTC1 /MDd /GS /fp:precise /Zc:wchar_t /Zc:forScope /Zc:inline /std:c++17 /Fo"X64\DEBUG\\" /Fd"X64\DEBUG\VC142.PDB" /external:W3 /Gd /TP /FC C:\USERS\BUNINMAT\SOURCE\REPOS\DPG\NANOGOLEM\BASRND.CPP
^C:\USERS\BUNINMAT\SOURCE\REPOS\DPG\NANOGOLEM\BASSTR.CPP
/c /I"C:\USERS\BUNINMAT\SOURCE\REPOS\DPG\NANOGOLEM-MSVC\PACKAGES\LIBPNG.1.6.20.1\BUILD\NATIVE\../..//BUILD/NATIVE/INCLUDE/" /I.\PACKAGES\LIBPNG.1.6.20.1\BUILD\NATIVE\INCLUDE /I.\PACKAGES /ZI /JMC /nologo /W3 /WX- /diagnostics:column /sdl /Od /D HAS_LIBPNG /D DIRCAT=0x5c /D _CRT_SECURE_NO_WARNINGS /D _MBCS /D _VARIADIC_MAX=10 /D _MBCS /Gm- /EHsc /RTC1 /MDd /GS /fp:precise /Zc:wchar_t /Zc:forScope /Zc:inline /std:c++17 /Fo"X64\DEBUG\\" /Fd"X64\DEBUG\VC142.PDB" /external:W3 /Gd /TP /FC C:\USERS\BUNINMAT\SOURCE\REPOS\DPG\NANOGOLEM\BASSTR.CPP
^C:\USERS\BUNINMAT\SOURCE\REPOS\DPG\NANOGOLEM\BRDFMODEL.CPP
/c /I"C:\USERS\BUNINMAT\SOURCE\REPOS\DPG\NANOGOLEM-MSVC\PACKAGES\LIBPNG.1.6.20.1\BUILD\NATIVE\../..//BUILD/NATIVE/INCLUDE/" /I.\PACKAGES\LIBPNG.1.6.20.1\BUILD\NATIVE\INCLUDE /I.\PACKAGES /ZI /JMC /nologo /W3 /WX- /diagnostics:column /sdl /Od /D HAS_LIBPNG /D DIRCAT=0x5c /D _CRT_SECURE_NO_WARNINGS /D _MBCS /D _VARIADIC_MAX=10 /D _MBCS /Gm- /EHsc /RTC1 /MDd /GS /fp:precise /Zc:wchar_t /Zc:forScope /Zc:inline /std:c++17 /Fo"X64\DEBUG\\" /Fd"X64\DEBUG\VC142.PDB" /external:W3 /Gd /TP /FC C:\USERS\BUNINMAT\SOURCE\REPOS\DPG\NANOGOLEM\BRDFMODEL.CPP
^C:\USERS\BUNINMAT\SOURCE\REPOS\DPG\NANOGOLEM\COLOR.CPP
/c /I"C:\USERS\BUNINMAT\SOURCE\REPOS\DPG\NANOGOLEM-MSVC\PACKAGES\LIBPNG.1.6.20.1\BUILD\NATIVE\../..//BUILD/NATIVE/INCLUDE/" /I.\PACKAGES\LIBPNG.1.6.20.1\BUILD\NATIVE\INCLUDE /I.\PACKAGES /ZI /JMC /nologo /W3 /WX- /diagnostics:column /sdl /Od /D HAS_LIBPNG /D DIRCAT=0x5c /D _CRT_SECURE_NO_WARNINGS /D _MBCS /D _VARIADIC_MAX=10 /D _MBCS /Gm- /EHsc /RTC1 /MDd /GS /fp:precise /Zc:wchar_t /Zc:forScope /Zc:inline /std:c++17 /Fo"X64\DEBUG\\" /Fd"X64\DEBUG\VC142.PDB" /external:W3 /Gd /TP /FC C:\USERS\BUNINMAT\SOURCE\REPOS\DPG\NANOGOLEM\COLOR.CPP
^C:\USERS\BUNINMAT\SOURCE\REPOS\DPG\NANOGOLEM\COORDS3D.CPP
/c /I"C:\USERS\BUNINMAT\SOURCE\REPOS\DPG\NANOGOLEM-MSVC\PACKAGES\LIBPNG.1.6.20.1\BUILD\NATIVE\../..//BUILD/NATIVE/INCLUDE/" /I.\PACKAGES\LIBPNG.1.6.20.1\BUILD\NATIVE\INCLUDE /I.\PACKAGES /ZI /JMC /nologo /W3 /WX- /diagnostics:column /sdl /Od /D HAS_LIBPNG /D DIRCAT=0x5c /D _CRT_SECURE_NO_WARNINGS /D _MBCS /D _VARIADIC_MAX=10 /D _MBCS /Gm- /EHsc /RTC1 /MDd /GS /fp:precise /Zc:wchar_t /Zc:forScope /Zc:inline /std:c++17 /Fo"X64\DEBUG\\" /Fd"X64\DEBUG\VC142.PDB" /external:W3 /Gd /TP /FC C:\USERS\BUNINMAT\SOURCE\REPOS\DPG\NANOGOLEM\COORDS3D.CPP
^C:\USERS\BUNINMAT\SOURCE\REPOS\DPG\NANOGOLEM\DOTCOUNT.CPP
/c /I"C:\USERS\BUNINMAT\SOURCE\REPOS\DPG\NANOGOLEM-MSVC\PACKAGES\LIBPNG.1.6.20.1\BUILD\NATIVE\../..//BUILD/NATIVE/INCLUDE/" /I.\PACKAGES\LIBPNG.1.6.20.1\BUILD\NATIVE\INCLUDE /I.\PACKAGES /ZI /JMC /nologo /W3 /WX- /diagnostics:column /sdl /Od /D HAS_LIBPNG /D DIRCAT=0x5c /D _CRT_SECURE_NO_WARNINGS /D _MBCS /D _VARIADIC_MAX=10 /D _MBCS /Gm- /EHsc /RTC1 /MDd /GS /fp:precise /Zc:wchar_t /Zc:forScope /Zc:inline /std:c++17 /Fo"X64\DEBUG\\" /Fd"X64\DEBUG\VC142.PDB" /external:W3 /Gd /TP /FC C:\USERS\BUNINMAT\SOURCE\REPOS\DPG\NANOGOLEM\DOTCOUNT.CPP
^C:\USERS\BUNINMAT\SOURCE\REPOS\DPG\NANOGOLEM\ENVIRON.CPP
/c /I"C:\USERS\BUNINMAT\SOURCE\REPOS\DPG\NANOGOLEM-MSVC\PACKAGES\LIBPNG.1.6.20.1\BUILD\NATIVE\../..//BUILD/NATIVE/INCLUDE/" /I.\PACKAGES\LIBPNG.1.6.20.1\BUILD\NATIVE\INCLUDE /I.\PACKAGES /ZI /JMC /nologo /W3 /WX- /diagnostics:column /sdl /Od /D HAS_LIBPNG /D DIRCAT=0x5c /D _CRT_SECURE_NO_WARNINGS /D _MBCS /D _VARIADIC_MAX=10 /D _MBCS /Gm- /EHsc /RTC1 /MDd /GS /fp:precise /Zc:wchar_t /Zc:forScope /Zc:inline /std:c++17 /Fo"X64\DEBUG\\" /Fd"X64\DEBUG\VC142.PDB" /external:W3 /Gd /TP /FC C:\USERS\BUNINMAT\SOURCE\REPOS\DPG\NANOGOLEM\ENVIRON.CPP
^C:\USERS\BUNINMAT\SOURCE\REPOS\DPG\NANOGOLEM\ERRORG.CPP
/c /I"C:\USERS\BUNINMAT\SOURCE\REPOS\DPG\NANOGOLEM-MSVC\PACKAGES\LIBPNG.1.6.20.1\BUILD\NATIVE\../..//BUILD/NATIVE/INCLUDE/" /I.\PACKAGES\LIBPNG.1.6.20.1\BUILD\NATIVE\INCLUDE /I.\PACKAGES /ZI /JMC /nologo /W3 /WX- /diagnostics:column /sdl /Od /D HAS_LIBPNG /D DIRCAT=0x5c /D _CRT_SECURE_NO_WARNINGS /D _MBCS /D _VARIADIC_MAX=10 /D _MBCS /Gm- /EHsc /RTC1 /MDd /GS /fp:precise /Zc:wchar_t /Zc:forScope /Zc:inline /std:c++17 /Fo"X64\DEBUG\\" /Fd"X64\DEBUG\VC142.PDB" /external:W3 /Gd /TP /FC C:\USERS\BUNINMAT\SOURCE\REPOS\DPG\NANOGOLEM\ERRORG.CPP
^C:\USERS\BUNINMAT\SOURCE\REPOS\DPG\NANOGOLEM\HDRIMG.CPP
/c /I"C:\USERS\BUNINMAT\SOURCE\REPOS\DPG\NANOGOLEM-MSVC\PACKAGES\LIBPNG.1.6.20.1\BUILD\NATIVE\../..//BUILD/NATIVE/INCLUDE/" /I.\PACKAGES\LIBPNG.1.6.20.1\BUILD\NATIVE\INCLUDE /I.\PACKAGES /ZI /JMC /nologo /W3 /WX- /diagnostics:column /sdl /Od /D HAS_LIBPNG /D DIRCAT=0x5c /D _CRT_SECURE_NO_WARNINGS /D _MBCS /D _VARIADIC_MAX=10 /D _MBCS /Gm- /EHsc /RTC1 /MDd /GS /fp:precise /Zc:wchar_t /Zc:forScope /Zc:inline /std:c++17 /Fo"X64\DEBUG\\" /Fd"X64\DEBUG\VC142.PDB" /external:W3 /Gd /TP /FC C:\USERS\BUNINMAT\SOURCE\REPOS\DPG\NANOGOLEM\HDRIMG.CPP
^C:\USERS\BUNINMAT\SOURCE\REPOS\DPG\NANOGOLEM\HDRIO.CPP
/c /I"C:\USERS\BUNINMAT\SOURCE\REPOS\DPG\NANOGOLEM-MSVC\PACKAGES\LIBPNG.1.6.20.1\BUILD\NATIVE\../..//BUILD/NATIVE/INCLUDE/" /I.\PACKAGES\LIBPNG.1.6.20.1\BUILD\NATIVE\INCLUDE /I.\PACKAGES /ZI /JMC /nologo /W3 /WX- /diagnostics:column /sdl /Od /D HAS_LIBPNG /D DIRCAT=0x5c /D _CRT_SECURE_NO_WARNINGS /D _MBCS /D _VARIADIC_MAX=10 /D _MBCS /Gm- /EHsc /RTC1 /MDd /GS /fp:precise /Zc:wchar_t /Zc:forScope /Zc:inline /std:c++17 /Fo"X64\DEBUG\\" /Fd"X64\DEBUG\VC142.PDB" /external:W3 /Gd /TP /FC C:\USERS\BUNINMAT\SOURCE\REPOS\DPG\NANOGOLEM\HDRIO.CPP
^C:\USERS\BUNINMAT\SOURCE\REPOS\DPG\NANOGOLEM\MAIN.CPP
/c /I"C:\USERS\BUNINMAT\SOURCE\REPOS\DPG\NANOGOLEM-MSVC\PACKAGES\LIBPNG.1.6.20.1\BUILD\NATIVE\../..//BUILD/NATIVE/INCLUDE/" /I.\PACKAGES\LIBPNG.1.6.20.1\BUILD\NATIVE\INCLUDE /I.\PACKAGES /ZI /JMC /nologo /W3 /WX- /diagnostics:column /sdl /Od /D HAS_LIBPNG /D DIRCAT=0x5c /D _CRT_SECURE_NO_WARNINGS /D _MBCS /D _VARIADIC_MAX=10 /D _MBCS /Gm- /EHsc /RTC1 /MDd /GS /fp:precise /Zc:wchar_t /Zc:forScope /Zc:inline /std:c++17 /Fo"X64\DEBUG\\" /Fd"X64\DEBUG\VC142.PDB" /external:W3 /Gd /TP /FC C:\USERS\BUNINMAT\SOURCE\REPOS\DPG\NANOGOLEM\MAIN.CPP
^C:\USERS\BUNINMAT\SOURCE\REPOS\DPG\NANOGOLEM\MATRIX4.CPP
/c /I"C:\USERS\BUNINMAT\SOURCE\REPOS\DPG\NANOGOLEM-MSVC\PACKAGES\LIBPNG.1.6.20.1\BUILD\NATIVE\../..//BUILD/NATIVE/INCLUDE/" /I.\PACKAGES\LIBPNG.1.6.20.1\BUILD\NATIVE\INCLUDE /I.\PACKAGES /ZI /JMC /nologo /W3 /WX- /diagnostics:column /sdl /Od /D HAS_LIBPNG /D DIRCAT=0x5c /D _CRT_SECURE_NO_WARNINGS /D _MBCS /D _VARIADIC_MAX=10 /D _MBCS /Gm- /EHsc /RTC1 /MDd /GS /fp:precise /Zc:wchar_t /Zc:forScope /Zc:inline /std:c++17 /Fo"X64\DEBUG\\" /Fd"X64\DEBUG\VC142.PDB" /external:W3 /Gd /TP /FC C:\USERS\BUNINMAT\SOURCE\REPOS\DPG\NANOGOLEM\MATRIX4.CPP
^C:\USERS\BUNINMAT\SOURCE\REPOS\DPG\NANOGOLEM\RAY.CPP
/c /I"C:\USERS\BUNINMAT\SOURCE\REPOS\DPG\NANOGOLEM-MSVC\PACKAGES\LIBPNG.1.6.20.1\BUILD\NATIVE\../..//BUILD/NATIVE/INCLUDE/" /I.\PACKAGES\LIBPNG.1.6.20.1\BUILD\NATIVE\INCLUDE /I.\PACKAGES /ZI /JMC /nologo /W3 /WX- /diagnostics:column /sdl /Od /D HAS_LIBPNG /D DIRCAT=0x5c /D _CRT_SECURE_NO_WARNINGS /D _MBCS /D _VARIADIC_MAX=10 /D _MBCS /Gm- /EHsc /RTC1 /MDd /GS /fp:precise /Zc:wchar_t /Zc:forScope /Zc:inline /std:c++17 /Fo"X64\DEBUG\\" /Fd"X64\DEBUG\VC142.PDB" /external:W3 /Gd /TP /FC C:\USERS\BUNINMAT\SOURCE\REPOS\DPG\NANOGOLEM\RAY.CPP
^C:\USERS\BUNINMAT\SOURCE\REPOS\DPG\NANOGOLEM\SBBOX.CPP
/c /I"C:\USERS\BUNINMAT\SOURCE\REPOS\DPG\NANOGOLEM-MSVC\PACKAGES\LIBPNG.1.6.20.1\BUILD\NATIVE\../..//BUILD/NATIVE/INCLUDE/" /I.\PACKAGES\LIBPNG.1.6.20.1\BUILD\NATIVE\INCLUDE /I.\PACKAGES /ZI /JMC /nologo /W3 /WX- /diagnostics:column /sdl /Od /D HAS_LIBPNG /D DIRCAT=0x5c /D _CRT_SECURE_NO_WARNINGS /D _MBCS /D _VARIADIC_MAX=10 /D _MBCS /Gm- /EHsc /RTC1 /MDd /GS /fp:precise /Zc:wchar_t /Zc:forScope /Zc:inline /std:c++17 /Fo"X64\DEBUG\\" /Fd"X64\DEBUG\VC142.PDB" /external:W3 /Gd /TP /FC C:\USERS\BUNINMAT\SOURCE\REPOS\DPG\NANOGOLEM\SBBOX.CPP
^C:\USERS\BUNINMAT\SOURCE\REPOS\DPG\NANOGOLEM\SCENE.CPP
/c /I"C:\USERS\BUNINMAT\SOURCE\REPOS\DPG\NANOGOLEM-MSVC\PACKAGES\LIBPNG.1.6.20.1\BUILD\NATIVE\../..//BUILD/NATIVE/INCLUDE/" /I.\PACKAGES\LIBPNG.1.6.20.1\BUILD\NATIVE\INCLUDE /I.\PACKAGES /ZI /JMC /nologo /W3 /WX- /diagnostics:column /sdl /Od /D HAS_LIBPNG /D DIRCAT=0x5c /D _CRT_SECURE_NO_WARNINGS /D _MBCS /D _VARIADIC_MAX=10 /D _MBCS /Gm- /EHsc /RTC1 /MDd /GS /fp:precise /Zc:wchar_t /Zc:forScope /Zc:inline /std:c++17 /Fo"X64\DEBUG\\" /Fd"X64\DEBUG\VC142.PDB" /external:W3 /Gd /TP /FC C:\USERS\BUNINMAT\SOURCE\REPOS\DPG\NANOGOLEM\SCENE.CPP
^C:\USERS\BUNINMAT\SOURCE\REPOS\DPG\NANOGOLEM\TALLOC.CPP
/c /I"C:\USERS\BUNINMAT\SOURCE\REPOS\DPG\NANOGOLEM-MSVC\PACKAGES\LIBPNG.1.6.20.1\BUILD\NATIVE\../..//BUILD/NATIVE/INCLUDE/" /I.\PACKAGES\LIBPNG.1.6.20.1\BUILD\NATIVE\INCLUDE /I.\PACKAGES /ZI /JMC /nologo /W3 /WX- /diagnostics:column /sdl /Od /D HAS_LIBPNG /D DIRCAT=0x5c /D _CRT_SECURE_NO_WARNINGS /D _MBCS /D _VARIADIC_MAX=10 /D _MBCS /Gm- /EHsc /RTC1 /MDd /GS /fp:precise /Zc:wchar_t /Zc:forScope /Zc:inline /std:c++17 /Fo"X64\DEBUG\\" /Fd"X64\DEBUG\VC142.PDB" /external:W3 /Gd /TP /FC C:\USERS\BUNINMAT\SOURCE\REPOS\DPG\NANOGOLEM\TALLOC.CPP
^C:\USERS\BUNINMAT\SOURCE\REPOS\DPG\NANOGOLEM\TIMER.CPP
/c /I"C:\USERS\BUNINMAT\SOURCE\REPOS\DPG\NANOGOLEM-MSVC\PACKAGES\LIBPNG.1.6.20.1\BUILD\NATIVE\../..//BUILD/NATIVE/INCLUDE/" /I.\PACKAGES\LIBPNG.1.6.20.1\BUILD\NATIVE\INCLUDE /I.\PACKAGES /ZI /JMC /nologo /W3 /WX- /diagnostics:column /sdl /Od /D HAS_LIBPNG /D DIRCAT=0x5c /D _CRT_SECURE_NO_WARNINGS /D _MBCS /D _VARIADIC_MAX=10 /D _MBCS /Gm- /EHsc /RTC1 /MDd /GS /fp:precise /Zc:wchar_t /Zc:forScope /Zc:inline /std:c++17 /Fo"X64\DEBUG\\" /Fd"X64\DEBUG\VC142.PDB" /external:W3 /Gd /TP /FC C:\USERS\BUNINMAT\SOURCE\REPOS\DPG\NANOGOLEM\TIMER.CPP
^C:\USERS\BUNINMAT\SOURCE\REPOS\DPG\NANOGOLEM\TRIANGLE.CPP
/c /I"C:\USERS\BUNINMAT\SOURCE\REPOS\DPG\NANOGOLEM-MSVC\PACKAGES\LIBPNG.1.6.20.1\BUILD\NATIVE\../..//BUILD/NATIVE/INCLUDE/" /I.\PACKAGES\LIBPNG.1.6.20.1\BUILD\NATIVE\INCLUDE /I.\PACKAGES /ZI /JMC /nologo /W3 /WX- /diagnostics:column /sdl /Od /D HAS_LIBPNG /D DIRCAT=0x5c /D _CRT_SECURE_NO_WARNINGS /D _MBCS /D _VARIADIC_MAX=10 /D _MBCS /Gm- /EHsc /RTC1 /MDd /GS /fp:precise /Zc:wchar_t /Zc:forScope /Zc:inline /std:c++17 /Fo"X64\DEBUG\\" /Fd"X64\DEBUG\VC142.PDB" /external:W3 /Gd /TP /FC C:\USERS\BUNINMAT\SOURCE\REPOS\DPG\NANOGOLEM\TRIANGLE.CPP
^C:\USERS\BUNINMAT\SOURCE\REPOS\DPG\NANOGOLEM\VECTOR2.CPP
/c /I"C:\USERS\BUNINMAT\SOURCE\REPOS\DPG\NANOGOLEM-MSVC\PACKAGES\LIBPNG.1.6.20.1\BUILD\NATIVE\../..//BUILD/NATIVE/INCLUDE/" /I.\PACKAGES\LIBPNG.1.6.20.1\BUILD\NATIVE\INCLUDE /I.\PACKAGES /ZI /JMC /nologo /W3 /WX- /diagnostics:column /sdl /Od /D HAS_LIBPNG /D DIRCAT=0x5c /D _CRT_SECURE_NO_WARNINGS /D _MBCS /D _VARIADIC_MAX=10 /D _MBCS /Gm- /EHsc /RTC1 /MDd /GS /fp:precise /Zc:wchar_t /Zc:forScope /Zc:inline /std:c++17 /Fo"X64\DEBUG\\" /Fd"X64\DEBUG\VC142.PDB" /external:W3 /Gd /TP /FC C:\USERS\BUNINMAT\SOURCE\REPOS\DPG\NANOGOLEM\VECTOR2.CPP
^C:\USERS\BUNINMAT\SOURCE\REPOS\DPG\NANOGOLEM\VECTOR3.CPP
/c /I"C:\USERS\BUNINMAT\SOURCE\REPOS\DPG\NANOGOLEM-MSVC\PACKAGES\LIBPNG.1.6.20.1\BUILD\NATIVE\../..//BUILD/NATIVE/INCLUDE/" /I.\PACKAGES\LIBPNG.1.6.20.1\BUILD\NATIVE\INCLUDE /I.\PACKAGES /ZI /JMC /nologo /W3 /WX- /diagnostics:column /sdl /Od /D HAS_LIBPNG /D DIRCAT=0x5c /D _CRT_SECURE_NO_WARNINGS /D _MBCS /D _VARIADIC_MAX=10 /D _MBCS /Gm- /EHsc /RTC1 /MDd /GS /fp:precise /Zc:wchar_t /Zc:forScope /Zc:inline /std:c++17 /Fo"X64\DEBUG\\" /Fd"X64\DEBUG\VC142.PDB" /external:W3 /Gd /TP /FC C:\USERS\BUNINMAT\SOURCE\REPOS\DPG\NANOGOLEM\VECTOR3.CPP
^C:\USERS\BUNINMAT\SOURCE\REPOS\DPG\NANOGOLEM\VIEWPARS.CPP
/c /I"C:\USERS\BUNINMAT\SOURCE\REPOS\DPG\NANOGOLEM-MSVC\PACKAGES\LIBPNG.1.6.20.1\BUILD\NATIVE\../..//BUILD/NATIVE/INCLUDE/" /I.\PACKAGES\LIBPNG.1.6.20.1\BUILD\NATIVE\INCLUDE /I.\PACKAGES /ZI /JMC /nologo /W3 /WX- /diagnostics:column /sdl /Od /D HAS_LIBPNG /D DIRCAT=0x5c /D _CRT_SECURE_NO_WARNINGS /D _MBCS /D _VARIADIC_MAX=10 /D _MBCS /Gm- /EHsc /RTC1 /MDd /GS /fp:precise /Zc:wchar_t /Zc:forScope /Zc:inline /std:c++17 /Fo"X64\DEBUG\\" /Fd"X64\DEBUG\VC142.PDB" /external:W3 /Gd /TP /FC C:\USERS\BUNINMAT\SOURCE\REPOS\DPG\NANOGOLEM\VIEWPARS.CPP
^C:\USERS\BUNINMAT\SOURCE\REPOS\DPG\NANOGOLEM\APPCORE.CPP
/c /I"C:\USERS\BUNINMAT\SOURCE\REPOS\DPG\NANOGOLEM-MSVC\PACKAGES\LIBPNG.1.6.20.1\BUILD\NATIVE\../..//BUILD/NATIVE/INCLUDE/" /I.\PACKAGES\LIBPNG.1.6.20.1\BUILD\NATIVE\INCLUDE /I.\PACKAGES /ZI /JMC /nologo /W3 /WX- /diagnostics:column /sdl /Od /D HAS_LIBPNG /D DIRCAT=0x5c /D _CRT_SECURE_NO_WARNINGS /D _MBCS /D _VARIADIC_MAX=10 /D _MBCS /Gm- /EHsc /RTC1 /MDd /GS /fp:precise /Zc:wchar_t /Zc:forScope /Zc:inline /std:c++17 /Fo"X64\DEBUG\\" /Fd"X64\DEBUG\VC142.PDB" /external:W3 /Gd /TP /FC C:\USERS\BUNINMAT\SOURCE\REPOS\DPG\NANOGOLEM\APPCORE.CPP
^C:\USERS\BUNINMAT\SOURCE\REPOS\DPG\NANOGOLEM\ASDS.CPP
/c /I"C:\USERS\BUNINMAT\SOURCE\REPOS\DPG\NANOGOLEM-MSVC\PACKAGES\LIBPNG.1.6.20.1\BUILD\NATIVE\../..//BUILD/NATIVE/INCLUDE/" /I.\PACKAGES\LIBPNG.1.6.20.1\BUILD\NATIVE\INCLUDE /I.\PACKAGES /ZI /JMC /nologo /W3 /WX- /diagnostics:column /sdl /Od /D HAS_LIBPNG /D DIRCAT=0x5c /D _CRT_SECURE_NO_WARNINGS /D _MBCS /D _VARIADIC_MAX=10 /D _MBCS /Gm- /EHsc /RTC1 /MDd /GS /fp:precise /Zc:wchar_t /Zc:forScope /Zc:inline /std:c++17 /Fo"X64\DEBUG\\" /Fd"X64\DEBUG\VC142.PDB" /external:W3 /Gd /TP /FC C:\USERS\BUNINMAT\SOURCE\REPOS\DPG\NANOGOLEM\ASDS.CPP
^C:\USERS\BUNINMAT\SOURCE\REPOS\DPG\NANOGOLEM\HMINFO.CPP
/c /I"C:\USERS\BUNINMAT\SOURCE\REPOS\DPG\NANOGOLEM-MSVC\PACKAGES\LIBPNG.1.6.20.1\BUILD\NATIVE\../..//BUILD/NATIVE/INCLUDE/" /I.\PACKAGES\LIBPNG.1.6.20.1\BUILD\NATIVE\INCLUDE /I.\PACKAGES /ZI /JMC /nologo /W3 /WX- /diagnostics:column /sdl /Od /D HAS_LIBPNG /D DIRCAT=0x5c /D _CRT_SECURE_NO_WARNINGS /D _MBCS /D _VARIADIC_MAX=10 /D _MBCS /Gm- /EHsc /RTC1 /MDd /GS /fp:precise /Zc:wchar_t /Zc:forScope /Zc:inline /std:c++17 /Fo"X64\DEBUG\\" /Fd"X64\DEBUG\VC142.PDB" /external:W3 /Gd /TP /FC C:\USERS\BUNINMAT\SOURCE\REPOS\DPG\NANOGOLEM\HMINFO.CPP
^C:\USERS\BUNINMAT\SOURCE\REPOS\DPG\NANOGOLEM\RT00APP.CPP
/c /I"C:\USERS\BUNINMAT\SOURCE\REPOS\DPG\NANOGOLEM-MSVC\PACKAGES\LIBPNG.1.6.20.1\BUILD\NATIVE\../..//BUILD/NATIVE/INCLUDE/" /I.\PACKAGES\LIBPNG.1.6.20.1\BUILD\NATIVE\INCLUDE /I.\PACKAGES /ZI /JMC /nologo /W3 /WX- /diagnostics:column /sdl /Od /D HAS_LIBPNG /D DIRCAT=0x5c /D _CRT_SECURE_NO_WARNINGS /D _MBCS /D _VARIADIC_MAX=10 /D _MBCS /Gm- /EHsc /RTC1 /MDd /GS /fp:precise /Zc:wchar_t /Zc:forScope /Zc:inline /std:c++17 /Fo"X64\DEBUG\\" /Fd"X64\DEBUG\VC142.PDB" /external:W3 /Gd /TP /FC C:\USERS\BUNINMAT\SOURCE\REPOS\DPG\NANOGOLEM\RT00APP.CPP
^C:\USERS\BUNINMAT\SOURCE\REPOS\DPG\NANOGOLEM\RT01APP.CPP
/c /I"C:\USERS\BUNINMAT\SOURCE\REPOS\DPG\NANOGOLEM-MSVC\PACKAGES\LIBPNG.1.6.20.1\BUILD\NATIVE\../..//BUILD/NATIVE/INCLUDE/" /I.\PACKAGES\LIBPNG.1.6.20.1\BUILD\NATIVE\INCLUDE /I.\PACKAGES /ZI /JMC /nologo /W3 /WX- /diagnostics:column /sdl /Od /D HAS_LIBPNG /D DIRCAT=0x5c /D _CRT_SECURE_NO_WARNINGS /D _MBCS /D _VARIADIC_MAX=10 /D _MBCS /Gm- /EHsc /RTC1 /MDd /GS /fp:precise /Zc:wchar_t /Zc:forScope /Zc:inline /std:c++17 /Fo"X64\DEBUG\\" /Fd"X64\DEBUG\VC142.PDB" /external:W3 /Gd /TP /FC C:\USERS\BUNINMAT\SOURCE\REPOS\DPG\NANOGOLEM\RT01APP.CPP
^C:\USERS\BUNINMAT\SOURCE\REPOS\DPG\NANOGOLEM\RT02APP.CPP
/c /I"C:\USERS\BUNINMAT\SOURCE\REPOS\DPG\NANOGOLEM-MSVC\PACKAGES\LIBPNG.1.6.20.1\BUILD\NATIVE\../..//BUILD/NATIVE/INCLUDE/" /I.\PACKAGES\LIBPNG.1.6.20.1\BUILD\NATIVE\INCLUDE /I.\PACKAGES /ZI /JMC /nologo /W3 /WX- /diagnostics:column /sdl /Od /D HAS_LIBPNG /D DIRCAT=0x5c /D _CRT_SECURE_NO_WARNINGS /D _MBCS /D _VARIADIC_MAX=10 /D _MBCS /Gm- /EHsc /RTC1 /MDd /GS /fp:precise /Zc:wchar_t /Zc:forScope /Zc:inline /std:c++17 /Fo"X64\DEBUG\\" /Fd"X64\DEBUG\VC142.PDB" /external:W3 /Gd /TP /FC C:\USERS\BUNINMAT\SOURCE\REPOS\DPG\NANOGOLEM\RT02APP.CPP
^C:\USERS\BUNINMAT\SOURCE\REPOS\DPG\NANOGOLEM\RT04APP.CPP
/c /I"C:\USERS\BUNINMAT\SOURCE\REPOS\DPG\NANOGOLEM-MSVC\PACKAGES\LIBPNG.1.6.20.1\BUILD\NATIVE\../..//BUILD/NATIVE/INCLUDE/" /I.\PACKAGES\LIBPNG.1.6.20.1\BUILD\NATIVE\INCLUDE /I.\PACKAGES /ZI /JMC /nologo /W3 /WX- /diagnostics:column /sdl /Od /D HAS_LIBPNG /D DIRCAT=0x5c /D _CRT_SECURE_NO_WARNINGS /D _MBCS /D _VARIADIC_MAX=10 /D _MBCS /Gm- /EHsc /RTC1 /MDd /GS /fp:precise /Zc:wchar_t /Zc:forScope /Zc:inline /std:c++17 /Fo"X64\DEBUG\\" /Fd"X64\DEBUG\VC142.PDB" /external:W3 /Gd /TP /FC C:\USERS\BUNINMAT\SOURCE\REPOS\DPG\NANOGOLEM\RT04APP.CPP
^C:\USERS\BUNINMAT\SOURCE\REPOS\DPG\NANOGOLEM\RTCORECA.CPP
/c /I"C:\USERS\BUNINMAT\SOURCE\REPOS\DPG\NANOGOLEM-MSVC\PACKAGES\LIBPNG.1.6.20.1\BUILD\NATIVE\../..//BUILD/NATIVE/INCLUDE/" /I.\PACKAGES\LIBPNG.1.6.20.1\BUILD\NATIVE\INCLUDE /I.\PACKAGES /ZI /JMC /nologo /W3 /WX- /diagnostics:column /sdl /Od /D HAS_LIBPNG /D DIRCAT=0x5c /D _CRT_SECURE_NO_WARNINGS /D _MBCS /D _VARIADIC_MAX=10 /D _MBCS /Gm- /EHsc /RTC1 /MDd /GS /fp:precise /Zc:wchar_t /Zc:forScope /Zc:inline /std:c++17 /Fo"X64\DEBUG\\" /Fd"X64\DEBUG\VC142.PDB" /external:W3 /Gd /TP /FC C:\USERS\BUNINMAT\SOURCE\REPOS\DPG\NANOGOLEM\RTCORECA.CPP
^C:\USERS\BUNINMAT\SOURCE\REPOS\DPG\NANOGOLEM\TDBVH.CPP
/c /I"C:\USERS\BUNINMAT\SOURCE\REPOS\DPG\NANOGOLEM-MSVC\PACKAGES\LIBPNG.1.6.20.1\BUILD\NATIVE\../..//BUILD/NATIVE/INCLUDE/" /I.\PACKAGES\LIBPNG.1.6.20.1\BUILD\NATIVE\INCLUDE /I.\PACKAGES /ZI /JMC /nologo /W3 /WX- /diagnostics:column /sdl /Od /D HAS_LIBPNG /D DIRCAT=0x5c /D _CRT_SECURE_NO_WARNINGS /D _MBCS /D _VARIADIC_MAX=10 /D _MBCS /Gm- /EHsc /RTC1 /MDd /GS /fp:precise /Zc:wchar_t /Zc:forScope /Zc:inline /std:c++17 /Fo"X64\DEBUG\\" /Fd"X64\DEBUG\VC142.PDB" /external:W3 /Gd /TP /FC C:\USERS\BUNINMAT\SOURCE\REPOS\DPG\NANOGOLEM\TDBVH.CPP
^C:\USERS\BUNINMAT\SOURCE\REPOS\DPG\NANOGOLEM\WORLD.CPP
/c /I"C:\USERS\BUNINMAT\SOURCE\REPOS\DPG\NANOGOLEM-MSVC\PACKAGES\LIBPNG.1.6.20.1\BUILD\NATIVE\../..//BUILD/NATIVE/INCLUDE/" /I.\PACKAGES\LIBPNG.1.6.20.1\BUILD\NATIVE\INCLUDE /I.\PACKAGES /ZI /JMC /nologo /W3 /WX- /diagnostics:column /sdl /Od /D HAS_LIBPNG /D DIRCAT=0x5c /D _CRT_SECURE_NO_WARNINGS /D _MBCS /D _VARIADIC_MAX=10 /D _MBCS /Gm- /EHsc /RTC1 /MDd /GS /fp:precise /Zc:wchar_t /Zc:forScope /Zc:inline /std:c++17 /Fo"X64\DEBUG\\" /Fd"X64\DEBUG\VC142.PDB" /external:W3 /Gd /TP /FC C:\USERS\BUNINMAT\SOURCE\REPOS\DPG\NANOGOLEM\WORLD.CPP
^C:\USERS\BUNINMAT\SOURCE\REPOS\DPG\NANOGOLEM\RTCORE.CPP
/c /I"C:\USERS\BUNINMAT\SOURCE\REPOS\DPG\NANOGOLEM-MSVC\PACKAGES\LIBPNG.1.6.20.1\BUILD\NATIVE\../..//BUILD/NATIVE/INCLUDE/" /I.\PACKAGES\LIBPNG.1.6.20.1\BUILD\NATIVE\INCLUDE /I.\PACKAGES /ZI /JMC /nologo /W3 /WX- /diagnostics:column /sdl /Od /D HAS_LIBPNG /D DIRCAT=0x5c /D _CRT_SECURE_NO_WARNINGS /D _MBCS /D _VARIADIC_MAX=10 /D _MBCS /Gm- /EHsc /RTC1 /MDd /GS /fp:precise /Zc:wchar_t /Zc:forScope /Zc:inline /std:c++17 /Fo"X64\DEBUG\\" /Fd"X64\DEBUG\VC142.PDB" /external:W3 /Gd /TP /FC C:\USERS\BUNINMAT\SOURCE\REPOS\DPG\NANOGOLEM\RTCORE.CPP
^C:\USERS\BUNINMAT\SOURCE\REPOS\DPG\NANOGOLEM\ASDS_VORONOI.CPP
/c /I"C:\USERS\BUNINMAT\SOURCE\REPOS\DPG\NANOGOLEM-MSVC\PACKAGES\LIBPNG.1.6.20.1\BUILD\NATIVE\../..//BUILD/NATIVE/INCLUDE/" /I.\PACKAGES\LIBPNG.1.6.20.1\BUILD\NATIVE\INCLUDE /I.\PACKAGES /ZI /JMC /nologo /W3 /WX- /diagnostics:column /sdl /Od /D HAS_LIBPNG /D DIRCAT=0x5c /D _CRT_SECURE_NO_WARNINGS /D _MBCS /D _VARIADIC_MAX=10 /D _MBCS /Gm- /EHsc /RTC1 /MDd /GS /fp:precise /Zc:wchar_t /Zc:forScope /Zc:inline /std:c++17 /Fo"X64\DEBUG\\" /Fd"X64\DEBUG\VC142.PDB" /external:W3 /Gd /TP /FC C:\USERS\BUNINMAT\SOURCE\REPOS\DPG\NANOGOLEM\ASDS_VORONOI.CPP
